{
  "tracks": {
    "href": "https://api.spotify.com/v1/search?query=uncommon+search&type=track&offset=100&limit=50",
    "items": [
      {
        "album": {
          "album_type": "album",
          "artists": [
            {
              "external_urls": {
                "spotify": "https://open.spotify.com/artist/5jDtsSY98sC2JOYqJj8lab"
              },
              "href": "https://api.spotify.com/v1/artists/5jDtsSY98sC2JOYqJj8lab",
              "id": "5jDtsSY98sC2JOYqJj8lab",
              "name": "Uncommonmenfrommars",
              "type": "artist",
              "uri": "spotify:artist:5jDtsSY98sC2JOYqJj8lab"
            }
          ],
          "available_markets": [],
          "external_urls": {
            "spotify": "https://open.spotify.com/album/7N0sICYrFq4wZ7H7r1m7AO"
          },
          "href": "https://api.spotify.com/v1/albums/7N0sICYrFq4wZ7H7r1m7AO",
          "id": "7N0sICYrFq4wZ7H7r1m7AO",
          "images": [
            {
              "height": 640,
              "url": "https://i.scdn.co/image/ab67616d0000b273bad8a5380385642337366755",
              "width": 640
            },
            {
              "height": 300,
              "url": "https://i.scdn.co/image/ab67616d00001e02bad8a5380385642337366755",
              "width": 300
            },
            {
              "height": 64,
              "url": "https://i.scdn.co/image/ab67616d00004851bad8a5380385642337366755",
              "width": 64
            }
          ],
          "name": "Welcome to...",
          "release_date": "2000-01-01",
          "release_date_precision": "day",
          "total_tracks": 7,
          "type": "album",
          "uri": "spotify:album:7N0sICYrFq4wZ7H7r1m7AO"
        },
        "artists": [
          {
            "external_urls": {
              "spotify": "https://open.spotify.com/artist/5jDtsSY98sC2JOYqJj8lab"
            },
            "href": "https://api.spotify.com/v1/artists/5jDtsSY98sC2JOYqJj8lab",
            "id": "5jDtsSY98sC2JOYqJj8lab",
            "name": "Uncommonmenfrommars",
            "type": "artist",
            "uri": "spotify:artist:5jDtsSY98sC2JOYqJj8lab"
          }
        ],
        "available_markets": [],
        "disc_number": 1,
        "duration_ms": 180106,
        "explicit": false,
        "external_ids": {
          "isrc": "FR6F39900190"
        },
        "external_urls": {
          "spotify": "https://open.spotify.com/track/1XlH6YvH607C7qeXvxIOVN"
        },
        "href": "https://api.spotify.com/v1/tracks/1XlH6YvH607C7qeXvxIOVN",
        "id": "1XlH6YvH607C7qeXvxIOVN",
        "is_local": false,
        "name": "Uncommonmenfrommars",
        "popularity": 7,
        "preview_url": "https://p.scdn.co/mp3-preview/98e503a5a7ad305da90070d5fe386d820ee5b323?cid=230c2ac940f14f9aa4294af862300e9b",
        "track_number": 4,
        "type": "track",
        "uri": "spotify:track:1XlH6YvH607C7qeXvxIOVN"
      },
      {
        "album": {
          "album_type": "album",
          "artists": [
            {
              "external_urls": {
                "spotify": "https://open.spotify.com/artist/28jWHi6LeUESY4fJ3lNsAu"
              },
              "href": "https://api.spotify.com/v1/artists/28jWHi6LeUESY4fJ3lNsAu",
              "id": "28jWHi6LeUESY4fJ3lNsAu",
              "name": "Spec Baldur",
              "type": "artist",
              "uri": "spotify:artist:28jWHi6LeUESY4fJ3lNsAu"
            }
          ],
          "available_markets": [],
          "external_urls": {
            "spotify": "https://open.spotify.com/album/08OwZKMjLE6MuExruwTHzo"
          },
          "href": "https://api.spotify.com/v1/albums/08OwZKMjLE6MuExruwTHzo",
          "id": "08OwZKMjLE6MuExruwTHzo",
          "images": [
            {
              "height": 640,
              "url": "https://i.scdn.co/image/ab67616d0000b27336159215f47ee87ff513930f",
              "width": 640
            },
            {
              "height": 300,
              "url": "https://i.scdn.co/image/ab67616d00001e0236159215f47ee87ff513930f",
              "width": 300
            },
            {
              "height": 64,
              "url": "https://i.scdn.co/image/ab67616d0000485136159215f47ee87ff513930f",
              "width": 64
            }
          ],
          "name": "Maximum",
          "release_date": "2022-04-21",
          "release_date_precision": "day",
          "total_tracks": 16,
          "type": "album",
          "uri": "spotify:album:08OwZKMjLE6MuExruwTHzo"
        },
        "artists": [
          {
            "external_urls": {
              "spotify": "https://open.spotify.com/artist/28jWHi6LeUESY4fJ3lNsAu"
            },
            "href": "https://api.spotify.com/v1/artists/28jWHi6LeUESY4fJ3lNsAu",
            "id": "28jWHi6LeUESY4fJ3lNsAu",
            "name": "Spec Baldur",
            "type": "artist",
            "uri": "spotify:artist:28jWHi6LeUESY4fJ3lNsAu"
          }
        ],
        "available_markets": [],
        "disc_number": 1,
        "duration_ms": 86215,
        "explicit": false,
        "external_ids": {
          "isrc": "QZHN62295192"
        },
        "external_urls": {
          "spotify": "https://open.spotify.com/track/77eVPMVx0DPmkT5mZm9MJM"
        },
        "href": "https://api.spotify.com/v1/tracks/77eVPMVx0DPmkT5mZm9MJM",
        "id": "77eVPMVx0DPmkT5mZm9MJM",
        "is_local": false,
        "name": "Uncommon",
        "popularity": 10,
        "preview_url": "https://p.scdn.co/mp3-preview/c11e776947c755ff92ff561bbe2dd12127005bcc?cid=230c2ac940f14f9aa4294af862300e9b",
        "track_number": 9,
        "type": "track",
        "uri": "spotify:track:77eVPMVx0DPmkT5mZm9MJM"
      },
      {
        "album": {
          "album_type": "album",
          "artists": [
            {
              "external_urls": {
                "spotify": "https://open.spotify.com/artist/5WumVSdIwdbbF1UFZuuiCW"
              },
              "href": "https://api.spotify.com/v1/artists/5WumVSdIwdbbF1UFZuuiCW",
              "id": "5WumVSdIwdbbF1UFZuuiCW",
              "name": "Mateo Pascual",
              "type": "artist",
              "uri": "spotify:artist:5WumVSdIwdbbF1UFZuuiCW"
            }
          ],
          "available_markets": [],
          "external_urls": {
            "spotify": "https://open.spotify.com/album/5BSDKl4QRi49TxeFE5eRdZ"
          },
          "href": "https://api.spotify.com/v1/albums/5BSDKl4QRi49TxeFE5eRdZ",
          "id": "5BSDKl4QRi49TxeFE5eRdZ",
          "images": [
            {
              "height": 640,
              "url": "https://i.scdn.co/image/ab67616d0000b27361884853f099aa1e9412e581",
              "width": 640
            },
            {
              "height": 300,
              "url": "https://i.scdn.co/image/ab67616d00001e0261884853f099aa1e9412e581",
              "width": 300
            },
            {
              "height": 64,
              "url": "https://i.scdn.co/image/ab67616d0000485161884853f099aa1e9412e581",
              "width": 64
            }
          ],
          "name": "Commandos Soundtrack Collection (Original Game Soundtrack)",
          "release_date": "2014-11-08",
          "release_date_precision": "day",
          "total_tracks": 91,
          "type": "album",
          "uri": "spotify:album:5BSDKl4QRi49TxeFE5eRdZ"
        },
        "artists": [
          {
            "external_urls": {
              "spotify": "https://open.spotify.com/artist/5WumVSdIwdbbF1UFZuuiCW"
            },
            "href": "https://api.spotify.com/v1/artists/5WumVSdIwdbbF1UFZuuiCW",
            "id": "5WumVSdIwdbbF1UFZuuiCW",
            "name": "Mateo Pascual",
            "type": "artist",
            "uri": "spotify:artist:5WumVSdIwdbbF1UFZuuiCW"
          }
        ],
        "available_markets": [],
        "disc_number": 1,
        "duration_ms": 74067,
        "explicit": false,
        "external_ids": {
          "isrc": "BGA471408704"
        },
        "external_urls": {
          "spotify": "https://open.spotify.com/track/2FlDw0U7EdYJDyQVlAkxOL"
        },
        "href": "https://api.spotify.com/v1/tracks/2FlDw0U7EdYJDyQVlAkxOL",
        "id": "2FlDw0U7EdYJDyQVlAkxOL",
        "is_local": false,
        "name": "Uncommon Men (Short Version) [From \"Commandos 3\"]",
        "popularity": 1,
        "preview_url": "https://p.scdn.co/mp3-preview/5ea56c718d931807f17c29cfc7b951dc37d34db1?cid=230c2ac940f14f9aa4294af862300e9b",
        "track_number": 69,
        "type": "track",
        "uri": "spotify:track:2FlDw0U7EdYJDyQVlAkxOL"
      },
      {
        "album": {
          "album_type": "compilation",
          "artists": [
            {
              "external_urls": {
                "spotify": "https://open.spotify.com/artist/0LyfQWJT6nXafLPZqxe9Of"
              },
              "href": "https://api.spotify.com/v1/artists/0LyfQWJT6nXafLPZqxe9Of",
              "id": "0LyfQWJT6nXafLPZqxe9Of",
              "name": "Various Artists",
              "type": "artist",
              "uri": "spotify:artist:0LyfQWJT6nXafLPZqxe9Of"
            }
          ],
          "available_markets": [],
          "external_urls": {
            "spotify": "https://open.spotify.com/album/05zFWV3d0eZaUK0YlGWyaj"
          },
          "href": "https://api.spotify.com/v1/albums/05zFWV3d0eZaUK0YlGWyaj",
          "id": "05zFWV3d0eZaUK0YlGWyaj",
          "images": [
            {
              "height": 640,
              "url": "https://i.scdn.co/image/ab67616d0000b27365cea8d07b62fba0901e4c5b",
              "width": 640
            },
            {
              "height": 300,
              "url": "https://i.scdn.co/image/ab67616d00001e0265cea8d07b62fba0901e4c5b",
              "width": 300
            },
            {
              "height": 64,
              "url": "https://i.scdn.co/image/ab67616d0000485165cea8d07b62fba0901e4c5b",
              "width": 64
            }
          ],
          "name": "Tricks & Treats (WiddFam Halloween 2020 Freebies)",
          "release_date": "2020-10-31",
          "release_date_precision": "day",
          "total_tracks": 22,
          "type": "album",
          "uri": "spotify:album:05zFWV3d0eZaUK0YlGWyaj"
        },
        "artists": [
          {
            "external_urls": {
              "spotify": "https://open.spotify.com/artist/2x1pmbUTB2JNZNg8eAvDT9"
            },
            "href": "https://api.spotify.com/v1/artists/2x1pmbUTB2JNZNg8eAvDT9",
            "id": "2x1pmbUTB2JNZNg8eAvDT9",
            "name": "Uncommon Sense",
            "type": "artist",
            "uri": "spotify:artist:2x1pmbUTB2JNZNg8eAvDT9"
          }
        ],
        "available_markets": [],
        "disc_number": 1,
        "duration_ms": 253714,
        "explicit": false,
        "external_ids": {
          "isrc": "NLCK41076783"
        },
        "external_urls": {
          "spotify": "https://open.spotify.com/track/02Ca1vMYIibHBU9BiositT"
        },
        "href": "https://api.spotify.com/v1/tracks/02Ca1vMYIibHBU9BiositT",
        "id": "02Ca1vMYIibHBU9BiositT",
        "is_local": false,
        "name": "Terror",
        "popularity": 0,
        "preview_url": "https://p.scdn.co/mp3-preview/4ce2e44dc48617c33036816f3c2700ea7797b539?cid=230c2ac940f14f9aa4294af862300e9b",
        "track_number": 5,
        "type": "track",
        "uri": "spotify:track:02Ca1vMYIibHBU9BiositT"
      },
      {
        "album": {
          "album_type": "single",
          "artists": [
            {
              "external_urls": {
                "spotify": "https://open.spotify.com/artist/3YgpJohSQBVrXLtV7QCbu3"
              },
              "href": "https://api.spotify.com/v1/artists/3YgpJohSQBVrXLtV7QCbu3",
              "id": "3YgpJohSQBVrXLtV7QCbu3",
              "name": "Uncommon Evolution",
              "type": "artist",
              "uri": "spotify:artist:3YgpJohSQBVrXLtV7QCbu3"
            }
          ],
          "available_markets": [],
          "external_urls": {
            "spotify": "https://open.spotify.com/album/1Z3KKBZBbZlZPypegupOnx"
          },
          "href": "https://api.spotify.com/v1/albums/1Z3KKBZBbZlZPypegupOnx",
          "id": "1Z3KKBZBbZlZPypegupOnx",
          "images": [
            {
              "height": 640,
              "url": "https://i.scdn.co/image/ab67616d0000b273d15ea2df52047e677f7db926",
              "width": 640
            },
            {
              "height": 300,
              "url": "https://i.scdn.co/image/ab67616d00001e02d15ea2df52047e677f7db926",
              "width": 300
            },
            {
              "height": 64,
              "url": "https://i.scdn.co/image/ab67616d00004851d15ea2df52047e677f7db926",
              "width": 64
            }
          ],
          "name": "Junkyard Jesus",
          "release_date": "2017-06-30",
          "release_date_precision": "day",
          "total_tracks": 4,
          "type": "album",
          "uri": "spotify:album:1Z3KKBZBbZlZPypegupOnx"
        },
        "artists": [
          {
            "external_urls": {
              "spotify": "https://open.spotify.com/artist/3YgpJohSQBVrXLtV7QCbu3"
            },
            "href": "https://api.spotify.com/v1/artists/3YgpJohSQBVrXLtV7QCbu3",
            "id": "3YgpJohSQBVrXLtV7QCbu3",
            "name": "Uncommon Evolution",
            "type": "artist",
            "uri": "spotify:artist:3YgpJohSQBVrXLtV7QCbu3"
          }
        ],
        "available_markets": [],
        "disc_number": 1,
        "duration_ms": 326633,
        "explicit": false,
        "external_ids": {
          "isrc": "USQY51752545"
        },
        "external_urls": {
          "spotify": "https://open.spotify.com/track/7vct366a0tcfUsg9DCRF0V"
        },
        "href": "https://api.spotify.com/v1/tracks/7vct366a0tcfUsg9DCRF0V",
        "id": "7vct366a0tcfUsg9DCRF0V",
        "is_local": false,
        "name": "Junkyard Jesus",
        "popularity": 0,
        "preview_url": "https://p.scdn.co/mp3-preview/1978b1cf569da6ae931cc66c1fdb4ed288d90304?cid=230c2ac940f14f9aa4294af862300e9b",
        "track_number": 1,
        "type": "track",
        "uri": "spotify:track:7vct366a0tcfUsg9DCRF0V"
      }
    ],
    "limit": 50,
    "next": "https://api.spotify.com/v1/search?query=uncommon+search&type=track&offset=150&limit=50",
    "offset": 100,
    "previous": "https://api.spotify.com/v1/search?query=uncommon+search&type=track&offset=50&limit=50",
    "total": 191
  }
}
